0.93511,0.93511,0.93639,0.94911,0.9313
0.94275,0.92875,0.95165,0.95038,0.93893
0.88931,0.90712,0.87023,0.91221,0.63486
0.9313,0.92748,0.9402,0.93003,0.93893
0.94402,0.9313,0.93003,0.93639,0.92875
0.95038,0.9313,0.92112,0.94148,0.94402
0.78372,0.77226,0.68702,0.88677,0.73791
0.93766,0.93766,0.93766,0.93639,0.92494
0.94275,0.93639,0.9402,0.94275,0.94275
0.93893,0.92875,0.94148,0.94656,0.95547
0.94275,0.94148,0.9402,0.93639,0.95165
0.94529,0.92875,0.93639,0.94529,0.93766
0.89949,0.89186,0.92494,0.92112,0.95038
0.83715,0.4542,0.77226,0.77226,0.84224
0.03944,0.46565,0.51781,0.058524,0.79389
0.92748,0.93511,0.94656,0.92748,0.92621
0.93893,0.93511,0.92748,0.9402,0.9402
0.93003,0.91985,0.93893,0.90331,0.93766
0.93384,0.94529,0.94911,0.94402,0.94275
0.93639,0.95165,0.94529,0.94529,0.94148
0.93003,0.92875,0.94275,0.93384,0.93003
0.94529,0.93511,0.94784,0.93384,0.94275
0.93257,0.93766,0.94148,0.94148,0.93639
0.94529,0.94656,0.94784,0.95293,0.94148
0.93257,0.92366,0.93003,0.94656,0.95929
0.84224,0.87913,0.86514,0.93766,0.9313
0.90585,0.90967,0.90204,0.90076,0.89567
0.82952,0.83333,0.86005,0.77608,0.87532
0.26718,0.63359,0.68957,0.82697,0.89313
0.54071,0.85496,0.87786,0.75191,0.92239
0.79517,0.83969,0.42875,0.51145,0.39695
0.9542,0.93003,0.94529,0.9084,0.94148
0.92875,0.92875,0.92621,0.9402,0.92239
0.93893,0.93384,0.93893,0.93511,0.94275
0.93003,0.92875,0.93639,0.92112,0.9402
0.93003,0.95547,0.93893,0.92748,0.92621
0.93384,0.93384,0.93511,0.91985,0.93511
0.93511,0.93384,0.91985,0.94402,0.92875
0.9402,0.92748,0.94148,0.92621,0.93639
0.94911,0.93257,0.93893,0.92621,0.9313
0.95038,0.93766,0.94656,0.92875,0.95929
0.94784,0.95674,0.93257,0.93511,0.94911
0.94911,0.93384,0.94275,0.94529,0.91985
0.92112,0.93384,0.93511,0.93639,0.94275
0.94402,0.93766,0.92875,0.95293,0.93766
0.93766,0.93511,0.94656,0.94402,0.92748
0.9313,0.92748,0.93766,0.95038,0.95038
0.93511,0.93511,0.95165,0.92621,0.93384
0.9313,0.94529,0.93384,0.96183,0.94656
0.93639,0.94275,0.9402,0.94148,0.95293
0.93384,0.93511,0.95038,0.94529,0.91094
0.90204,0.84733,0.89822,0.80153,0.89313
0.79135,0.85496,0.87023,0.84097,0.73919
0.9402,0.93003,0.92366,0.9084,0.88422
0.9173,0.89186,0.92494,0.91221,0.92748
0.92748,0.8715,0.90204,0.8855,0.8626
0.83206,0.89313,0.70229,0.76336,0.82952
0.55725,0.69593,0.82316,0.70611,0.76081
0.27481,0.86641,0.71247,0.44402,0.67176
0.44275,0.076336,0.15522,0.74682,0.88168
0.67048,0.2341,0.75954,0.1743,0.77608
0.74173,0.32697,0.33461,0.80662,0.88804
0.60814,0.57761,0.38931,0.55344,0.71628
0.93003,0.9313,0.91985,0.94529,0.94402
0.94275,0.93003,0.93893,0.92621,0.9402
0.93766,0.93257,0.93384,0.91603,0.92494
0.94275,0.93384,0.93384,0.94529,0.93893
0.93893,0.94148,0.93257,0.92875,0.92621
0.94275,0.93384,0.94529,0.93766,0.93766
0.92366,0.93639,0.93384,0.9313,0.94784
0.94148,0.92621,0.89313,0.93639,0.8944
0.9313,0.94911,0.93766,0.93511,0.94275
0.92621,0.93893,0.94529,0.93766,0.95038
0.91349,0.93893,0.93639,0.90331,0.94784
0.94275,0.93511,0.95165,0.95293,0.92621
0.93766,0.9402,0.92239,0.9542,0.9084
0.93511,0.92239,0.92112,0.93384,0.93257
0.93257,0.93639,0.92112,0.92748,0.94402
0.93384,0.93257,0.93384,0.92748,0.93766
0.93257,0.93511,0.92875,0.9313,0.91603
0.9313,0.94656,0.92621,0.93639,0.94402
0.94911,0.93003,0.94402,0.93639,0.94148
0.94148,0.94275,0.93639,0.93893,0.93766
0.93511,0.92748,0.93893,0.93639,0.96565
0.94275,0.92621,0.9402,0.94784,0.9402
0.93639,0.93639,0.91603,0.94148,0.91858
0.93766,0.93766,0.94275,0.95674,0.94784
0.94148,0.92494,0.94148,0.92494,0.94402
0.93893,0.92748,0.93257,0.94784,0.92621
0.94275,0.93384,0.93003,0.94656,0.93639
0.9402,0.92748,0.93766,0.94275,0.94784
0.93893,0.96438,0.92112,0.93766,0.92494
0.90967,0.95165,0.9402,0.9313,0.92875
0.94529,0.92748,0.93003,0.92875,0.93384
0.94148,0.93003,0.94148,0.93893,0.94656
0.94529,0.93893,0.93257,0.91858,0.92748
0.9402,0.94148,0.95674,0.94148,0.93257
0.94148,0.93511,0.94402,0.94911,0.92366
0.94148,0.93511,0.93511,0.94275,0.95165
0.93766,0.95038,0.93893,0.92748,0.94529
0.92366,0.93384,0.94275,0.93766,0.92748
0.9402,0.94402,0.94911,0.93766,0.93511
0.94402,0.92239,0.90458,0.95293,0.94402
0.93639,0.93003,0.91985,0.89313,0.88041
0.70992,0.743,0.66794,0.76972,0.47964
0.69593,0.73664,0.79262,0.83333,0.79008
0.82697,0.92875,0.84606,0.87786,0.85115
0.89059,0.87532,0.94148,0.87659,0.90331
0.94402,0.93257,0.92494,0.90331,0.92875
0.90585,0.92748,0.92621,0.92494,0.9313
0.91349,0.89186,0.92366,0.91858,0.93893
0.85878,0.86768,0.87405,0.87913,0.85878
0.85115,0.90204,0.84478,0.91603,0.84478
0.82824,0.89186,0.75827,0.91603,0.86132
0.86896,0.92112,0.81807,0.7201,0.84478
0.91476,0.70865,0.84224,0.73791,0.70738
0.92875,0.56234,0.7112,0.46947,0.50636
0.45038,0.46947,0.80916,0.32952,0.49491
0.26718,0.74046,0.25827,0.79771,0.19847
0.17684,0.36768,0.86514,0.82188,0.84097
0.78499,0.11705,0.84224,0.77863,0.64504
0.68066,0.56489,0.86387,0.27863,0.56743
0.60433,0.13995,0.20229,0.18066,0.77226
0.84351,0.68575,0.49618,0.81043,0.67939
0.27481,0.64249,0.45165,0.77735,0.28626
0.79644,0.65267,0.33715,0.69466,0.88804
0.50382,0.75318,0.58015,0.56616,0.37659
0.94275,0.9313,0.9402,0.92875,0.93639
0.94656,0.93766,0.93384,0.94148,0.93766
0.9313,0.94529,0.93003,0.94148,0.94148
0.94402,0.94148,0.91349,0.95674,0.93384
0.93384,0.94402,0.95038,0.94402,0.95293
0.9402,0.93893,0.9313,0.94402,0.95547
0.94275,0.94402,0.9313,0.94656,0.95038
0.95547,0.91985,0.93511,0.9402,0.93766
0.9402,0.94911,0.93766,0.94148,0.94148
0.92748,0.93511,0.9313,0.92366,0.93639
0.95293,0.93511,0.95293,0.93766,0.95038
0.93257,0.93384,0.94402,0.93511,0.9313
0.9402,0.9542,0.93766,0.93384,0.92366
0.94148,0.92748,0.95165,0.94529,0.94148
0.94529,0.93639,0.92748,0.93384,0.93893
0.93257,0.93384,0.91985,0.92621,0.9173
0.93511,0.91476,0.93384,0.93893,0.95038
0.93893,0.94656,0.94148,0.93257,0.93639
0.9402,0.93384,0.92621,0.9402,0.95165
0.94402,0.92239,0.9313,0.9402,0.93766
0.93003,0.94656,0.92621,0.94529,0.94402
0.94275,0.95674,0.9313,0.92875,0.92748
0.94784,0.94911,0.91858,0.94784,0.95802
0.93766,0.94402,0.91094,0.93511,0.92494
0.9313,0.92239,0.93511,0.92112,0.94402
0.93511,0.92748,0.92494,0.92621,0.90204
0.93384,0.9402,0.9173,0.92239,0.92875
0.91221,0.92239,0.92366,0.90967,0.91476
0.92621,0.93639,0.93257,0.9173,0.92875
0.92494,0.94402,0.92748,0.93511,0.92621
0.9084,0.9402,0.92875,0.94402,0.93003
0.92239,0.92112,0.93511,0.93384,0.93639
0.92366,0.92366,0.92494,0.92875,0.92239
0.91985,0.92875,0.9313,0.91858,0.93257
0.9402,0.94784,0.9402,0.94148,0.9402
0.94656,0.93511,0.94911,0.9313,0.93257
0.93639,0.93511,0.92366,0.9313,0.9542
0.93766,0.94148,0.94784,0.93766,0.94275
0.93511,0.94275,0.9402,0.93257,0.9402
0.94275,0.94656,0.94402,0.9402,0.93384
0.94529,0.93639,0.93639,0.93384,0.9402
0.93257,0.94911,0.93257,0.93893,0.94656
0.94402,0.94402,0.92494,0.93511,0.9402
0.93893,0.90967,0.92112,0.93893,0.93893
0.94656,0.9402,0.94275,0.92748,0.94784
0.94148,0.94911,0.93639,0.93766,0.94784
0.94402,0.92366,0.93257,0.93384,0.91985
0.92875,0.93893,0.95038,0.94656,0.94911
0.9402,0.92494,0.94529,0.93511,0.94402
0.92875,0.93639,0.93003,0.93257,0.92494
0.91094,0.94529,0.93511,0.9402,0.94529
0.93639,0.92621,0.95038,0.95547,0.92875
0.95165,0.93511,0.9313,0.94656,0.93639
0.94402,0.94911,0.95038,0.95165,0.94529
0.93639,0.93511,0.9313,0.94402,0.9313
0.94784,0.94529,0.95547,0.93639,0.93639
0.93766,0.90076,0.92875,0.91985,0.95038
0.9402,0.95038,0.92366,0.95038,0.92875
0.95674,0.93257,0.93511,0.94402,0.93511
0.9402,0.94656,0.93893,0.94275,0.93639
0.94784,0.94784,0.94148,0.94402,0.9542
0.95674,0.94275,0.95165,0.94784,0.9402
0.92621,0.93893,0.94148,0.94656,0.94656
0.94784,0.91476,0.93766,0.93639,0.93003
0.94529,0.94275,0.94275,0.90204,0.93003
0.94529,0.92621,0.95038,0.94148,0.9542
0.9313,0.95165,0.94656,0.92494,0.93893
0.93639,0.9402,0.94911,0.9542,0.92239
0.95802,0.94911,0.9313,0.9402,0.94656
0.94784,0.93766,0.93003,0.93639,0.94784
0.93639,0.94402,0.94656,0.9402,0.93893
0.93384,0.94656,0.92494,0.94911,0.9313
0.92494,0.94656,0.95038,0.93511,0.94784
0.9313,0.94784,0.9173,0.93003,0.93766
0.9313,0.94784,0.93893,0.93257,0.93639
0.94148,0.92621,0.94784,0.9313,0.92621
0.93511,0.93511,0.94148,0.93893,0.94148
0.94148,0.91985,0.93003,0.93639,0.9402
0.94275,0.9402,0.9173,0.94402,0.95547
0.92875,0.93384,0.93893,0.94402,0.92875
0.89567,0.9402,0.90204,0.92748,0.90585
0.93893,0.91094,0.93511,0.82188,0.86641
0.40585,0.30025,0.69847,0.76718,0.45929
0.82824,0.71247,0.49873,0.65013,0.35115
0.8715,0.84606,0.88804,0.75573,0.76209
0.58397,0.59415,0.65394,0.59669,0.64885
0.90585,0.90585,0.69847,0.6743,0.73282
0.84733,0.92239,0.86768,0.92112,0.9084
0.88422,0.88168,0.93003,0.92366,0.88804
0.89567,0.90967,0.89695,0.92494,0.92621
0.92239,0.89949,0.91476,0.91094,0.94911
0.9084,0.92621,0.94911,0.90076,0.93511
0.92494,0.91221,0.89186,0.90331,0.92112
0.9084,0.89949,0.91985,0.9313,0.90204
0.89313,0.9173,0.9084,0.92366,0.9173
0.90331,0.88295,0.91858,0.91603,0.91603
0.87913,0.86514,0.87405,0.8855,0.90585
0.92112,0.84606,0.88041,0.90204,0.88168
0.91603,0.84987,0.86641,0.88804,0.91985
0.89186,0.90585,0.84987,0.83715,0.81043
0.7888,0.82188,0.90076,0.82316,0.80407
0.80153,0.87405,0.89822,0.90076,0.91349
0.76718,0.91476,0.78626,0.92239,0.88168
0.73028,0.76336,0.79644,0.77354,0.73155
0.87277,0.88041,0.76972,0.85751,0.88677
0.9313,0.89186,0.75445,0.80662,0.88422
0.67303,0.6743,0.87786,0.55725,0.74046
0.51781,0.57634,0.68957,0.90712,0.65776
0.82952,0.81934,0.42748,0.8855,0.51272
0.62723,0.81043,0.37913,0.29262,0.33588
0.33969,0.85496,0.25954,0.20102,0.19466
0.87023,0.75064,0.79771,0.29517,0.15649
0.46565,0.76081,0.66539,0.56107,0.57888
0.18575,0.57252,0.65522,0.14504,0.71374
0.26336,0.68193,0.26209,0.18193,0.10687
0.80407,0.2799,0.70356,0.80153,0.34224
0.094148,0.11959,0.085242,0.51527,0.55089
0.51527,0.74427,0.4542,0.81552,0.57125
0.26845,0.19975,0.40712,0.16285,0.39059
0.2341,0.18957,0.48473,0.81679,0.50763
0.37913,0.20483,0.21628,0.77735,0.21374
0.66285,0.81679,0.34097,0.77099,0.41985
0.65649,0.81298,0.24936,0.26209,0.61832
0.45038,0.5598,0.31679,0.37023,0.39313
0.49109,0.36768,0.36005,0.54071,0.81298
0.72519,0.56997,0.55216,0.90076,0.33079
0.7112,0.91094,0.73664,0.70611,0.74427
0.73282,0.76209,0.74173,0.46947,0.63232
0.93893,0.96692,0.93893,0.92875,0.94275
0.95038,0.94911,0.94148,0.94275,0.9402
0.9542,0.94402,0.94402,0.93639,0.9313
0.95674,0.94402,0.95165,0.94275,0.95929
0.93384,0.94656,0.94148,0.93384,0.93766
0.95547,0.96056,0.92748,0.94275,0.93893
0.94911,0.93893,0.95802,0.94911,0.94656
0.94656,0.95165,0.9542,0.94275,0.95802
0.93257,0.95547,0.94402,0.95802,0.95038
0.94402,0.96565,0.94911,0.9542,0.93893
0.94148,0.94784,0.92494,0.9402,0.94402
0.9402,0.93257,0.94911,0.95293,0.96565
0.95674,0.95165,0.94784,0.94784,0.9402
0.94656,0.94529,0.9542,0.94402,0.94275
0.92621,0.92621,0.94911,0.94529,0.93257
0.93766,0.93384,0.96183,0.9173,0.95674
0.94275,0.93257,0.92494,0.94529,0.94275
0.94148,0.94148,0.95293,0.95547,0.95165
0.92748,0.95674,0.94529,0.94275,0.95929
0.95165,0.93384,0.95293,0.95038,0.95165
0.94656,0.94275,0.92239,0.9313,0.93893
0.93893,0.93639,0.94402,0.94148,0.95165
0.9402,0.94148,0.9402,0.9542,0.93639
0.93893,0.93639,0.93257,0.93766,0.94402
0.93893,0.9402,0.94656,0.93639,0.92748
0.96183,0.94275,0.94784,0.93511,0.93639
0.9313,0.94148,0.94656,0.94656,0.94911
0.93384,0.93766,0.95547,0.95802,0.96056
0.94656,0.94402,0.9402,0.94275,0.93766
0.94911,0.9402,0.9402,0.9313,0.93511
0.94148,0.93003,0.92366,0.95293,0.94402
0.95547,0.92494,0.9313,0.91476,0.92494
0.91985,0.94148,0.91858,0.93639,0.93511
0.94656,0.95293,0.93384,0.93893,0.94402
0.94656,0.95293,0.93766,0.92366,0.94148
0.93766,0.94402,0.94784,0.96183,0.93893
0.93639,0.92494,0.95293,0.94275,0.93766
0.95165,0.94529,0.93639,0.92366,0.9402
0.9402,0.94784,0.94784,0.94656,0.94529
0.93766,0.94911,0.9402,0.9402,0.94656
0.93893,0.93766,0.93893,0.9313,0.94402
0.93511,0.93766,0.94656,0.93003,0.95293
0.93511,0.92748,0.93511,0.95674,0.93766
0.95165,0.94656,0.92621,0.93766,0.95165
0.94656,0.94275,0.9402,0.91349,0.9313
0.94911,0.9313,0.93639,0.94656,0.94402
0.93893,0.94275,0.93384,0.93893,0.94911
0.89822,0.92748,0.92494,0.93766,0.9313
0.93511,0.9313,0.92875,0.93639,0.92494
0.92494,0.94529,0.93639,0.94275,0.92875
0.91858,0.91858,0.92875,0.92239,0.91603
0.9173,0.8944,0.91094,0.92366,0.92112
0.91603,0.92239,0.9173,0.92112,0.90967
0.88168,0.87786,0.88931,0.87405,0.88041
0.84224,0.85496,0.8626,0.8626,0.86514
0.9173,0.89949,0.90204,0.91094,0.91476
0.92239,0.92494,0.92112,0.90585,0.90458
0.92112,0.91858,0.92112,0.91349,0.93639
0.92875,0.93639,0.94402,0.9313,0.93511
0.93766,0.93766,0.95293,0.94148,0.94148
0.93893,0.94529,0.94529,0.94529,0.92366
0.9402,0.94148,0.92494,0.94784,0.9313
0.9313,0.92239,0.91858,0.92621,0.92748
0.94148,0.94656,0.9173,0.9402,0.95929
0.94402,0.93893,0.94656,0.9402,0.94148
0.94656,0.93766,0.93257,0.95547,0.95293
0.93766,0.94784,0.91349,0.93384,0.93257
0.89567,0.88931,0.88804,0.91603,0.93766
0.94402,0.93893,0.92748,0.90204,0.93639
0.9402,0.92621,0.94529,0.94784,0.95293
0.94148,0.94911,0.92494,0.9631,0.95038
0.93893,0.96438,0.95038,0.95547,0.94911
0.94529,0.9402,0.95038,0.93766,0.93766
0.92875,0.94275,0.93893,0.92366,0.94784
0.95038,0.94911,0.94784,0.95929,0.94529
0.92494,0.93639,0.94656,0.94784,0.94784
0.94784,0.9402,0.95293,0.94656,0.94275
0.95547,0.9542,0.94402,0.93003,0.93893
0.95674,0.93511,0.94275,0.92875,0.9402
0.93766,0.94148,0.94784,0.93511,0.95038
0.94656,0.95165,0.95038,0.93511,0.95165
0.95293,0.9313,0.94656,0.9173,0.94784
0.95674,0.93893,0.9402,0.95674,0.94275
0.94402,0.94656,0.9542,0.93257,0.94784
0.94911,0.94148,0.94911,0.95802,0.9542
0.93003,0.9313,0.9313,0.92875,0.94656
0.93893,0.94275,0.94402,0.94275,0.95802
0.9542,0.94911,0.93893,0.94529,0.93893
0.94656,0.94529,0.94911,0.92748,0.95293
0.94275,0.94402,0.95165,0.95674,0.94275
0.94529,0.94402,0.93766,0.94656,0.93893
0.92621,0.96183,0.94529,0.94911,0.94656
0.9542,0.93766,0.93384,0.94784,0.95802
0.92239,0.94784,0.95547,0.9542,0.93384
0.9313,0.92875,0.94911,0.95038,0.94275
0.94148,0.93766,0.94911,0.93639,0.95293
0.95547,0.94529,0.96056,0.94656,0.94148
0.93639,0.94148,0.94911,0.93511,0.92621
0.92112,0.87023,0.8855,0.9402,0.93766
0.92494,0.9313,0.96056,0.92748,0.92875
0.92621,0.94784,0.90585,0.94529,0.89186
0.96183,0.93257,0.9542,0.94402,0.9313
0.95165,0.93766,0.93384,0.92239,0.95293
0.9402,0.94402,0.94275,0.94529,0.95929
0.95674,0.95802,0.94911,0.93893,0.94529
0.93511,0.95165,0.94784,0.95165,0.94911
0.94784,0.94529,0.94784,0.9173,0.9402
0.95165,0.9402,0.94402,0.94784,0.94656
0.96183,0.93003,0.93639,0.95038,0.95674
0.95674,0.94656,0.94148,0.93639,0.94911
0.94529,0.94656,0.94911,0.95802,0.94402
0.9631,0.95038,0.93766,0.94402,0.93511
0.94529,0.94402,0.95038,0.94911,0.95038
0.95165,0.94529,0.9402,0.92494,0.95038
0.9402,0.93766,0.95674,0.95038,0.93893
0.94148,0.95165,0.95293,0.94402,0.94402
0.93893,0.9313,0.9313,0.93257,0.95293
0.95293,0.94784,0.93639,0.9542,0.95165
0.94275,0.93893,0.92494,0.9542,0.95674
0.93639,0.9173,0.94529,0.95547,0.94275
0.94911,0.94275,0.94784,0.95038,0.95165
0.93893,0.94275,0.95038,0.94402,0.94529
0.93511,0.96183,0.94656,0.94148,0.95293
0.93639,0.93766,0.94148,0.93893,0.95038
0.95293,0.95038,0.95038,0.9402,0.93639
0.96056,0.94784,0.95038,0.95165,0.95547
0.94529,0.95165,0.94911,0.95674,0.93384
0.95674,0.9313,0.94911,0.95038,0.96056
0.93511,0.95929,0.94402,0.96819,0.94148
0.93384,0.94529,0.93893,0.96056,0.94656
0.94529,0.94784,0.9542,0.93639,0.94275
0.95674,0.95293,0.9542,0.92366,0.95038
0.94148,0.95293,0.94911,0.93257,0.94656
0.94402,0.94911,0.94275,0.94275,0.93766
0.94784,0.9313,0.94911,0.95293,0.95674
0.95038,0.94656,0.94784,0.95293,0.94529
0.94656,0.94529,0.95929,0.96438,0.95038
0.94148,0.9542,0.95038,0.94275,0.93893
0.94656,0.94402,0.94656,0.93257,0.95929
0.93639,0.94911,0.95038,0.94784,0.95038
0.94656,0.95802,0.95165,0.96183,0.95674
0.96819,0.96438,0.94402,0.93766,0.94402
0.9542,0.95674,0.93639,0.94656,0.95165
0.94656,0.95293,0.93003,0.94275,0.94148
0.9631,0.93639,0.94402,0.94656,0.94911
0.91858,0.95165,0.95165,0.9313,0.93639
0.93766,0.96056,0.93893,0.95674,0.95802
0.94529,0.94529,0.9402,0.92748,0.94656
0.94911,0.94656,0.93893,0.92366,0.94275
0.93384,0.94784,0.94784,0.93766,0.95802
0.94911,0.93766,0.93766,0.92875,0.93257
0.94529,0.94148,0.95293,0.94784,0.95293
0.92112,0.9542,0.93893,0.93893,0.94656
0.93639,0.95165,0.94911,0.93639,0.93511
0.95674,0.95038,0.94402,0.94529,0.93257
0.95547,0.95674,0.9402,0.94402,0.93766
0.94402,0.9402,0.94911,0.94529,0.92875
0.9542,0.9542,0.95293,0.94529,0.94529
0.94529,0.95547,0.94402,0.93766,0.94656
0.93384,0.94402,0.94148,0.93766,0.93384
0.93511,0.92748,0.94529,0.9402,0.92748
0.96183,0.93511,0.90076,0.93639,0.92112
0.94275,0.86896,0.86641,0.90204,0.91985
0.88804,0.81043,0.85878,0.94529,0.8855
0.76463,0.90712,0.93384,0.75318,0.5598
0.8117,0.80662,0.43384,0.93511,0.59796
0.78626,0.87786,0.9313,0.93511,0.41094
0.90712,0.68066,0.90585,0.81679,0.91858
0.92494,0.71756,0.757,0.93766,0.743
0.86768,0.89186,0.80662,0.80153,0.79898
0.35623,0.19338,0.92494,0.53181,0.16539
0.23537,0.2201,0.51272,0.89822,0.20483
0.77608,0.92875,0.89949,0.88168,0.89822
0.89695,0.85369,0.91476,0.82188,0.82697
0.92112,0.8944,0.88931,0.89059,0.86768
0.90712,0.89059,0.89313,0.89567,0.9173
0.88677,0.9084,0.9313,0.90076,0.86641
0.89949,0.8944,0.92748,0.94911,0.91349
0.92494,0.90585,0.89949,0.92875,0.93384
0.94529,0.92621,0.91858,0.89822,0.90585
0.90712,0.91603,0.90585,0.90585,0.88804
0.91221,0.89949,0.92748,0.91603,0.91858
0.91349,0.9084,0.92366,0.91349,0.91349
0.89695,0.89567,0.91985,0.91985,0.90331
0.92366,0.93003,0.92239,0.91476,0.9084
0.91985,0.91221,0.90458,0.91094,0.88804
0.89822,0.92621,0.88931,0.92239,0.89313
0.91094,0.91985,0.90204,0.9313,0.90076
0.90076,0.9084,0.90204,0.92875,0.90458
0.90712,0.90458,0.9313,0.92875,0.87277
0.89567,0.8944,0.88422,0.89822,0.92621
0.92494,0.89313,0.87913,0.92494,0.92875
0.91603,0.90585,0.89567,0.91603,0.88041
0.91985,0.89949,0.90076,0.90331,0.87277
0.85751,0.88041,0.85878,0.85751,0.86005
0.90458,0.86896,0.88041,0.89186,0.8715
0.88041,0.8855,0.88422,0.82952,0.85751
0.88295,0.91221,0.86641,0.88804,0.91094
0.88804,0.85242,0.87277,0.8715,0.8486
0.8257,0.81934,0.88804,0.90585,0.83461
0.76718,0.89313,0.79771,0.81425,0.7888
0.90712,0.79135,0.86641,0.82316,0.76845
0.88041,0.76845,0.85242,0.86514,0.78626
0.85751,0.83206,0.79771,0.89186,0.81679
0.91221,0.87913,0.7888,0.86132,0.78372
0.85878,0.7659,0.84224,0.84478,0.81934
0.82443,0.78499,0.77226,0.74046,0.75318
0.66285,0.71628,0.89567,0.85115,0.74936
0.73791,0.67048,0.8486,0.77226,0.67176
0.72137,0.77735,0.82824,0.74682,0.75827
0.80662,0.88295,0.76845,0.79644,0.81043
0.87659,0.73537,0.79644,0.84351,0.79389
0.8257,0.56361,0.85623,0.73919,0.66412
0.87023,0.65903,0.61578,0.84097,0.81934
0.50763,0.71501,0.83842,0.85878,0.89949
0.86641,0.62214,0.57252,0.78372,0.50763
0.67939,0.67557,0.82824,0.85751,0.72137
0.48982,0.53562,0.6056,0.53562,0.84097
0.34987,0.74046,0.81934,0.78626,0.36514
0.6514,0.47455,0.5229,0.66667,0.77354
0.78117,0.71374,0.80534,0.18321,0.32824
0.20992,0.24936,0.78499,0.29008,0.82443
0.55725,0.22901,0.73537,0.79262,0.37277
0.32188,0.11196,0.54835,0.78117,0.50763
0.37532,0.37023,0.23155,0.27226,0.65522
0.74555,0.66285,0.79389,0.52926,0.37659
0.76081,0.4084,0.26081,0.17557,0.65013
0.64758,0.34224,0.743,0.089059,0.65394
0.68575,0.74173,0.44529,0.46565,0.70865
0.27099,0.59542,0.19593,0.076336,0.78626
0.39949,0.81934,0.4542,0.54835,0.77226
0.757,0.70865,0.14631,0.41094,0.18957
0.29771,0.71374,0.52545,0.07888,0.59669
0.40204,0.38168,0.37786,0.13995,0.45165
0.62468,0.78117,0.077608,0.76209,0.18321
0.10687,0.13995,0.11069,0.2341,0.56616
0.38931,0.1883,0.45929,0.37532,0.243
0.72265,0.243,0.79008,0.33206,0.70738
0.26718,0.67684,0.76972,0.49237,0.71883
0.78244,0.77226,0.82443,0.18066,0.29517
0.36768,0.35496,0.50254,0.20356,0.34351
0.65267,0.73155,0.50891,0.29771,0.68066
0.31934,0.58779,0.58906,0.72265,0.32061
0.37277,0.5598,0.69593,0.24936,0.28626
0.28117,0.77354,0.5916,0.32952,0.65649
0.32443,0.3028,0.45165,0.63232,0.81425
0.40712,0.79135,0.78117,0.3944,0.48982
0.79898,0.54326,0.79262,0.31934,0.56616
0.73155,0.83333,0.30534,0.49364,0.81934
0.37786,0.50636,0.80534,0.80916,0.85242
0.7201,0.70611,0.49237,0.79898,0.40076
0.40712,0.44656,0.41094,0.59669,0.65649
0.59796,0.68066,0.7659,0.61323,0.65649
0.76209,0.65776,0.76845,0.66794,0.41476
0.79008,0.46819,0.51527,0.48982,0.40204
0.59415,0.79644,0.49618,0.82697,0.43257
